stm32f4xx_hal_msp.c:49:6:HAL_MspInit	16	static
stm32f4xx_hal_msp.c:81:6:HAL_TIM_Base_MspInit	16	static
stm32f4xx_hal_msp.c:101:6:HAL_TIM_MspPostInit	40	static
stm32f4xx_hal_msp.c:137:6:HAL_TIM_Base_MspDeInit	0	static
stm32f4xx_hal_msp.c:157:6:HAL_UART_MspInit	32	static
stm32f4xx_hal_msp.c:187:6:HAL_UART_MspDeInit	0	static
